C++/Methodologies for SysLvl Dsgn and Mod/Homework/HW 06/S2PC/S2PC/S2PC_Out.vcd
$date
     Oct 25, 2010       23:47:07
$end

$version
              SystemC 2.2.0 --- Oct 18 2010 19:53:18
$end

$timescale
     1 ps
$end

$scope module SystemC $end
$var wire    1  aaa  clk       $end
$var wire    1  aab  rst       $end
$var wire    1  aac  serin       $end
$var wire    1  aad  start       $end
$var wire    1  aae  ready       $end
$var wire    1  aaf  done       $end
$var wire    9  aag  parout [8:0]  $end
$upscope $end
$enddefinitions  $end

$comment
All initial values are dumped below at time 0 sec = 0 timescale units.
$end

$dumpvars
1aaa
1aab
1aac
0aad
1aae
1aaf
bXXXXXXXXX aag
$end

#1000
0aaa
b0 aag

#2000
0aab
1aad

#3000
0aad

#5000
1aaa

#6000
0aaa

#7000
1aaa

#8000
0aaa

#9000
1aaa

#10000
0aaa

#11000
1aaa

#12000
0aaa

#13000
1aaa

#14000
0aaa

#15000
1aaa

#16000
0aaa

#17000
1aaa

#18000
0aaa

#19000
1aaa

#20000
0aaa

#21000
1aaa

#22000
0aaa

#23000
1aaa

#24000
1aab

#25000
0aaa

#26000
0aab
1aad

#27000
0aad

#28000
0aac

#29000
1aaa

#30000
0aaa
1aac

#31000
1aaa

#32000
0aaa
0aac

#33000
1aaa

#34000
0aaa
1aac

#35000
1aaa

#36000
0aaa
0aac

#37000
1aaa

#38000
0aaa
1aac

#39000
1aaa

#40000
0aaa
0aac

#41000
1aaa

#42000
0aaa
1aac

#43000
1aaa

#44000
0aaa
0aac

#45000
1aaa

#46000
0aaa
1aac

