C++/Methodologies for SysLvl Dsgn and Mod/Midterm/PartC/serialAdder/serialAdder/outfile2.vcd
$date
     Nov 07, 2010       23:04:15
$end

$version
              SystemC 2.2.0 --- Oct 18 2010 19:53:18
$end

$timescale
     1 ps
$end

$scope module SystemC $end
$var wire    1  aaa  ain       $end
$var wire    1  aab  bin       $end
$var wire    1  aac  rst       $end
$var wire    1  aad  clk       $end
$var wire    1  aae  start       $end
$var wire    1  aaf  ready       $end
$var wire    8  aag  result [7:0]  $end
$upscope $end
$enddefinitions  $end

$comment
All initial values are dumped below at time 0 sec = 0 timescale units.
$end

$dumpvars
0aaa
0aab
0aac
0aad
0aae
1aaf
bXXXXXXXX aag
$end

#5000
1aac
1aad

#10000
0aac
0aad

#15000
1aaa

#25000
1aae

#30000
0aae

#35000
b1XXXXXXX aag

#40000
1aab
b10XXXXXX aag

#45000
b101XXXXX aag

#55000
b1011XXXX aag

#65000
b10111XXX aag

#70000
0aaa
0aab
b101111XX aag

#75000
b1011110X aag

#85000
b10111100 aag

